{"failedCount":1,"prefixedPath":"classpath:examples\/users\/users.feature","packageQualifiedName":"examples.users.users","loopIndex":-1,"relativePath":"examples\/users\/users.feature","scenarioResults":[{"sectionIndex":0,"stepResults":[{"result":{"nanos":948987,"millis":0.948987,"status":"passed"},"step":{"background":true,"line":48,"prefix":"*","index":0,"text":"url 'https:\/\/reqres.in\/api\/users'"},"stepLog":"19:48:54.814 karate.env system property was: null \n"},{"result":{"nanos":1004191,"millis":1.004191,"status":"passed"},"step":{"line":53,"prefix":"Given","index":0,"text":"param page = 2"}},{"result":{"nanos":1204845273,"millis":1204.845273,"status":"passed"},"step":{"line":54,"prefix":"When","index":1,"text":"method GET"},"stepLog":"19:48:55.039 request:\n1 > GET https:\/\/reqres.in\/api\/users?page=2\n1 > Host: reqres.in\n1 > Connection: Keep-Alive\n1 > User-Agent: Apache-HttpClient\/4.5.13 (Java\/13.0.2)\n1 > Accept-Encoding: gzip,deflate\n\n\n19:48:56.024 response time in milliseconds: 983\n1 < 200\n1 < Date: Thu, 08 Sep 2022 17:48:56 GMT\n1 < Content-Type: application\/json; charset=utf-8\n1 < Transfer-Encoding: chunked\n1 < Connection: keep-alive\n1 < X-Powered-By: Express\n1 < Access-Control-Allow-Origin: *\n1 < Etag: W\/\"406-ut0vzoCuidvyMf8arZpMpJ6ZRDw\"\n1 < Via: 1.1 vegur\n1 < Cache-Control: max-age=14400\n1 < CF-Cache-Status: HIT\n1 < Age: 548\n1 < Report-To: {\"endpoints\":[{\"url\":\"https:\\\/\\\/a.nel.cloudflare.com\\\/report\\\/v3?s=HW596ECKvObGKXwuMPSKs8b1za9n%2FZ4QTzx84F%2Fxrsl%2FoLiPnBU888JsRTb8hyLv%2FPUwUxBX0RZBXin4JwrlwT3NvUy8pJqg%2FyylKMjyv87UUI%2B4nPwqAwD6EA%3D%3D\"}],\"group\":\"cf-nel\",\"max_age\":604800}\n1 < NEL: {\"success_fraction\":0,\"report_to\":\"cf-nel\",\"max_age\":604800}\n1 < Vary: Accept-Encoding\n1 < Server: cloudflare\n1 < CF-RAY: 74798492caffbe38-CPH\n{\"page\":2,\"per_page\":6,\"total\":12,\"total_pages\":2,\"data\":[{\"id\":7,\"email\":\"michael.lawson@reqres.in\",\"first_name\":\"Michael\",\"last_name\":\"Lawson\",\"avatar\":\"https:\/\/reqres.in\/img\/faces\/7-image.jpg\"},{\"id\":8,\"email\":\"lindsay.ferguson@reqres.in\",\"first_name\":\"Lindsay\",\"last_name\":\"Ferguson\",\"avatar\":\"https:\/\/reqres.in\/img\/faces\/8-image.jpg\"},{\"id\":9,\"email\":\"tobias.funke@reqres.in\",\"first_name\":\"Tobias\",\"last_name\":\"Funke\",\"avatar\":\"https:\/\/reqres.in\/img\/faces\/9-image.jpg\"},{\"id\":10,\"email\":\"byron.fields@reqres.in\",\"first_name\":\"Byron\",\"last_name\":\"Fields\",\"avatar\":\"https:\/\/reqres.in\/img\/faces\/10-image.jpg\"},{\"id\":11,\"email\":\"george.edwards@reqres.in\",\"first_name\":\"George\",\"last_name\":\"Edwards\",\"avatar\":\"https:\/\/reqres.in\/img\/faces\/11-image.jpg\"},{\"id\":12,\"email\":\"rachel.howell@reqres.in\",\"first_name\":\"Rachel\",\"last_name\":\"Howell\",\"avatar\":\"https:\/\/reqres.in\/img\/faces\/12-image.jpg\"}],\"support\":{\"url\":\"https:\/\/reqres.in\/#support-heading\",\"text\":\"To keep ReqRes free, contributions towards server costs are appreciated!\"}}\n\n"},{"result":{"nanos":20577,"millis":0.020577,"status":"passed"},"step":{"line":55,"prefix":"Then","index":2,"text":"status 200"}},{"result":{"nanos":2121281,"millis":2.121281,"status":"passed"},"step":{"line":56,"prefix":"And","index":3,"text":"assert responseTime < 2500"}},{"result":{"nanos":5842895,"millis":5.842895,"status":"passed"},"step":{"line":57,"prefix":"*","index":4,"text":"match responseType == 'json'"}},{"result":{"nanos":13496872,"millis":13.496872,"status":"passed"},"step":{"line":58,"prefix":"*","index":5,"text":"match response.data[0].first_name == 'Michael'"}},{"result":{"nanos":22245044,"millis":22.245044,"status":"passed"},"step":{"line":59,"prefix":"*","index":6,"text":"def objectOfId11 = get[0] response.data[*].[?(@.id==11)]"}},{"result":{"nanos":2074353,"millis":2.074353,"status":"passed"},"step":{"line":60,"prefix":"And","index":7,"text":"print objectOfId11"},"stepLog":"19:48:56.095 [print] {\n  \"id\": 11,\n  \"email\": \"george.edwards@reqres.in\",\n  \"first_name\": \"George\",\n  \"last_name\": \"Edwards\",\n  \"avatar\": \"https:\/\/reqres.in\/img\/faces\/11-image.jpg\"\n}\n \n"}],"executorName":"main","line":51,"name":"Validate and extract object with id 11","description":"","durationMillis":1252.599473,"startTime":1662659334697,"failed":false,"refId":"[1:51]","endTime":1662659336095,"exampleIndex":-1},{"sectionIndex":1,"stepResults":[{"result":{"nanos":901070,"millis":0.90107,"status":"passed"},"step":{"background":true,"line":48,"prefix":"*","index":0,"text":"url 'https:\/\/reqres.in\/api\/users'"},"stepLog":"19:48:56.109 karate.env system property was: null \n"},{"result":{"nanos":478135,"millis":0.478135,"status":"passed"},"step":{"line":65,"prefix":"Given","index":0,"text":"url 'https:\/\/reqres.in\/api\/users?id=11'"}},{"result":{"nanos":334838625,"millis":334.838625,"status":"passed"},"step":{"line":66,"prefix":"When","index":1,"text":"method GET"},"stepLog":"19:48:56.114 request:\n1 > GET https:\/\/reqres.in\/api\/users?id=11\n1 > Host: reqres.in\n1 > Connection: Keep-Alive\n1 > User-Agent: Apache-HttpClient\/4.5.13 (Java\/13.0.2)\n1 > Accept-Encoding: gzip,deflate\n\n\n19:48:56.446 response time in milliseconds: 331\n1 < 200\n1 < Date: Thu, 08 Sep 2022 17:48:56 GMT\n1 < Content-Type: application\/json; charset=utf-8\n1 < Transfer-Encoding: chunked\n1 < Connection: keep-alive\n1 < X-Powered-By: Express\n1 < Access-Control-Allow-Origin: *\n1 < Etag: W\/\"11e-\/ce0hUxrHiq225jAM88pfKCXCL4\"\n1 < Via: 1.1 vegur\n1 < Cache-Control: max-age=14400\n1 < CF-Cache-Status: HIT\n1 < Age: 3001\n1 < Report-To: {\"endpoints\":[{\"url\":\"https:\\\/\\\/a.nel.cloudflare.com\\\/report\\\/v3?s=vw5dwA0ETIhkg5edOI5qjM3yRAEvmRj5GIYj3npCspLI19hgBO6rPtBiAz7w%2FZY2HuOHbbOgxjDCs1%2FMASI3eaZUT04qXMjWE%2BkORBktsR2I0KUsO76Lo3dklw%3D%3D\"}],\"group\":\"cf-nel\",\"max_age\":604800}\n1 < NEL: {\"success_fraction\":0,\"report_to\":\"cf-nel\",\"max_age\":604800}\n1 < Vary: Accept-Encoding\n1 < Server: cloudflare\n1 < CF-RAY: 74798495ed017367-CPH\n{\"data\":{\"id\":11,\"email\":\"george.edwards@reqres.in\",\"first_name\":\"George\",\"last_name\":\"Edwards\",\"avatar\":\"https:\/\/reqres.in\/img\/faces\/11-image.jpg\"},\"support\":{\"url\":\"https:\/\/reqres.in\/#support-heading\",\"text\":\"To keep ReqRes free, contributions towards server costs are appreciated!\"}}\n\n"},{"result":{"nanos":9777,"millis":0.009777,"status":"passed"},"step":{"line":67,"prefix":"Then","index":2,"text":"status 200"}},{"result":{"nanos":1607948,"millis":1.607948,"status":"passed"},"step":{"line":68,"prefix":"*","index":3,"text":"print response"},"stepLog":"19:48:56.449 [print] {\n  \"data\": {\n    \"id\": 11,\n    \"email\": \"george.edwards@reqres.in\",\n    \"first_name\": \"George\",\n    \"last_name\": \"Edwards\",\n    \"avatar\": \"https:\/\/reqres.in\/img\/faces\/11-image.jpg\"\n  },\n  \"support\": {\n    \"url\": \"https:\/\/reqres.in\/#support-heading\",\n    \"text\": \"To keep ReqRes free, contributions towards server costs are appreciated!\"\n  }\n}\n \n"},{"result":{"nanos":1089023,"millis":1.089023,"status":"passed"},"step":{"line":69,"prefix":"*","index":4,"text":"def id = response.data.id"}},{"result":{"nanos":722212,"millis":0.722212,"status":"passed"},"step":{"line":70,"prefix":"*","index":5,"text":"def name = response.data.first_name"}},{"result":{"nanos":704638,"millis":0.704638,"status":"passed"},"step":{"line":71,"prefix":"*","index":6,"text":"def surname = response.data.last_name"}},{"result":{"nanos":431281,"millis":0.431281,"status":"passed"},"step":{"line":72,"prefix":"*","index":7,"text":"assert id == 11"}},{"result":{"nanos":410153,"millis":0.410153,"status":"passed"},"step":{"line":73,"prefix":"*","index":8,"text":"assert name == 'George'"}},{"result":{"nanos":378112,"millis":0.378112,"status":"passed"},"step":{"line":74,"prefix":"*","index":9,"text":"assert surname == 'Edwards'"}},{"result":{"nanos":5655290,"millis":5.65529,"status":"passed"},"step":{"line":75,"prefix":"*","index":10,"text":"assert name + surname == 'GeorgeEdwards'"}}],"executorName":"main","line":63,"name":"Check for user 11 and validate","description":"","durationMillis":347.226264,"startTime":1662659336106,"failed":false,"refId":"[2:63]","endTime":1662659336459,"exampleIndex":-1},{"sectionIndex":2,"stepResults":[{"result":{"nanos":498060,"millis":0.49806,"status":"passed"},"step":{"background":true,"line":48,"prefix":"*","index":0,"text":"url 'https:\/\/reqres.in\/api\/users'"},"stepLog":"19:48:56.468 karate.env system property was: null \n"},{"result":{"nanos":913674,"millis":0.913674,"status":"passed"},"step":{"line":78,"prefix":"Given","index":0,"text":"url 'https:\/\/reqres.in\/api\/create'"}},{"result":{"nanos":1063457,"millis":1.063457,"status":"passed"},"step":{"line":79,"prefix":"When","index":1,"text":"request {\"name\": \"Peter\", \"job\":\"Sales\"}"}},{"result":{"nanos":453954349,"millis":453.954349,"status":"passed"},"step":{"line":80,"prefix":"And","index":2,"text":"method post"},"stepLog":"19:48:56.504 request:\n1 > POST https:\/\/reqres.in\/api\/create\n1 > Content-Type: application\/json; charset=UTF-8\n1 > Content-Length: 30\n1 > Host: reqres.in\n1 > Connection: Keep-Alive\n1 > User-Agent: Apache-HttpClient\/4.5.13 (Java\/13.0.2)\n1 > Accept-Encoding: gzip,deflate\n{\"name\":\"Peter\",\"job\":\"Sales\"}\n\n19:48:56.925 response time in milliseconds: 421\n1 < 201\n1 < Date: Thu, 08 Sep 2022 17:48:57 GMT\n1 < Content-Type: application\/json; charset=utf-8\n1 < Content-Length: 80\n1 < Connection: keep-alive\n1 < X-Powered-By: Express\n1 < Access-Control-Allow-Origin: *\n1 < Etag: W\/\"50-0MFW1UTt74yuHLv4+sKgPlCgObc\"\n1 < Via: 1.1 vegur\n1 < CF-Cache-Status: DYNAMIC\n1 < Report-To: {\"endpoints\":[{\"url\":\"https:\\\/\\\/a.nel.cloudflare.com\\\/report\\\/v3?s=po9R0F5uiuOz4j93D5gg5%2FWj%2BMMiWmx6cqEpeJIq1MVx96TZXrU%2F87eKCdKDOyUwKP3AAjkUL%2B9d7798QRCP2Q8EAXdtk5qfc6bGA0ZBn%2BGPNEkufLCbOdRG2Q%3D%3D\"}],\"group\":\"cf-nel\",\"max_age\":604800}\n1 < NEL: {\"success_fraction\":0,\"report_to\":\"cf-nel\",\"max_age\":604800}\n1 < Server: cloudflare\n1 < CF-RAY: 747984982df4abc2-CPH\n{\"name\":\"Peter\",\"job\":\"Sales\",\"id\":\"337\",\"createdAt\":\"2022-09-08T17:48:57.038Z\"}\n\n"},{"result":{"nanos":19253,"millis":0.019253,"status":"passed"},"step":{"line":81,"prefix":"Then","index":3,"text":"status 201"}},{"result":{"nanos":1647935,"millis":1.647935,"status":"passed"},"step":{"line":82,"prefix":"*","index":4,"text":"match responseType == 'json'"}},{"result":{"nanos":1168331,"millis":1.168331,"status":"passed"},"step":{"line":83,"prefix":"*","index":5,"text":"print 'Response is: ', response"},"stepLog":"19:48:56.930 [print] Response is:  {\n  \"name\": \"Peter\",\n  \"job\": \"Sales\",\n  \"id\": \"337\",\n  \"createdAt\": \"2022-09-08T17:48:57.038Z\"\n}\n \n"},{"result":{"nanos":527079,"millis":0.527079,"status":"passed"},"step":{"line":84,"prefix":"*","index":6,"text":"response.name == 'Peter'"}},{"result":{"nanos":459911,"millis":0.459911,"status":"passed"},"step":{"line":85,"prefix":"*","index":7,"text":"response.job == 'Sales'"}}],"executorName":"main","line":77,"name":"Register new Employee and validate","description":"","durationMillis":460.252049,"startTime":1662659336467,"failed":false,"refId":"[3:77]","endTime":1662659336931,"exampleIndex":-1},{"sectionIndex":3,"stepResults":[{"result":{"nanos":266412,"millis":0.266412,"status":"passed"},"step":{"background":true,"line":48,"prefix":"*","index":0,"text":"url 'https:\/\/reqres.in\/api\/users'"},"stepLog":"19:48:56.940 karate.env system property was: null \n"},{"result":{"nanos":634773,"millis":0.634773,"status":"passed"},"step":{"line":88,"prefix":"Given","index":0,"text":"url 'https:\/\/reqres.in\/api\/register'"}},{"result":{"nanos":251530,"millis":0.25153,"status":"passed"},"step":{"line":89,"prefix":"When","index":1,"text":"request {\"email\":\"karate@gmail.com\"}"}},{"result":{"nanos":254749904,"millis":254.749904,"status":"passed"},"step":{"line":90,"prefix":"And","index":2,"text":"method post"},"stepLog":"19:48:56.945 request:\n1 > POST https:\/\/reqres.in\/api\/register\n1 > Content-Type: application\/json; charset=UTF-8\n1 > Content-Length: 28\n1 > Host: reqres.in\n1 > Connection: Keep-Alive\n1 > User-Agent: Apache-HttpClient\/4.5.13 (Java\/13.0.2)\n1 > Accept-Encoding: gzip,deflate\n{\"email\":\"karate@gmail.com\"}\n\n19:48:57.196 response time in milliseconds: 251\n1 < 400\n1 < Date: Thu, 08 Sep 2022 17:48:57 GMT\n1 < Content-Type: application\/json; charset=utf-8\n1 < Content-Length: 28\n1 < Connection: keep-alive\n1 < X-Powered-By: Express\n1 < Access-Control-Allow-Origin: *\n1 < Etag: W\/\"1c-NmpazMScs9tOqR7eDEesn+pqC9Q\"\n1 < Via: 1.1 vegur\n1 < CF-Cache-Status: DYNAMIC\n1 < Report-To: {\"endpoints\":[{\"url\":\"https:\\\/\\\/a.nel.cloudflare.com\\\/report\\\/v3?s=W09lhysUuqAfWkpzZb7IKpKMer7Tm%2FRC6%2BdfaPVCZDzffwzuGja%2BiyjL0t7jW2rAjUfXbp2NDZYKHwncL%2Ffj4QcHkm%2B1psWEJxHizBbHhPAYn8kWAFERni92gQ%3D%3D\"}],\"group\":\"cf-nel\",\"max_age\":604800}\n1 < NEL: {\"success_fraction\":0,\"report_to\":\"cf-nel\",\"max_age\":604800}\n1 < Server: cloudflare\n1 < CF-RAY: 7479849a2a6aabde-CPH\n{\"error\":\"Missing password\"}\n\n"},{"result":{"nanos":10727,"millis":0.010727,"status":"passed"},"step":{"line":91,"prefix":"Then","index":3,"text":"status 400"}},{"result":{"nanos":944044,"millis":0.944044,"status":"passed"},"step":{"line":92,"prefix":"*","index":4,"text":"print response"},"stepLog":"19:48:57.198 [print] {\n  \"error\": \"Missing password\"\n}\n \n"},{"result":{"nanos":809214,"millis":0.809214,"status":"passed"},"step":{"line":93,"prefix":"*","index":5,"text":"assert response.error == 'Missing password'"}}],"executorName":"main","line":87,"name":"Validate unsuccessfully register of user","description":"","durationMillis":257.666604,"startTime":1662659336939,"failed":false,"refId":"[4:87]","endTime":1662659337199,"exampleIndex":-1},{"sectionIndex":4,"stepResults":[{"result":{"nanos":258198,"millis":0.258198,"status":"passed"},"step":{"background":true,"line":48,"prefix":"*","index":0,"text":"url 'https:\/\/reqres.in\/api\/users'"},"stepLog":"19:48:57.209 karate.env system property was: null \n"},{"result":{"nanos":644187,"millis":0.644187,"status":"passed"},"step":{"line":98,"prefix":"Given","index":0,"text":"param page = 2"}},{"result":{"nanos":314818660,"millis":314.81866,"status":"passed"},"step":{"line":99,"prefix":"When","index":1,"text":"method GET"},"stepLog":"19:48:57.212 request:\n1 > GET https:\/\/reqres.in\/api\/users?page=2\n1 > Host: reqres.in\n1 > Connection: Keep-Alive\n1 > User-Agent: Apache-HttpClient\/4.5.13 (Java\/13.0.2)\n1 > Accept-Encoding: gzip,deflate\n\n\n19:48:57.524 response time in milliseconds: 312\n1 < 200\n1 < Date: Thu, 08 Sep 2022 17:48:57 GMT\n1 < Content-Type: application\/json; charset=utf-8\n1 < Transfer-Encoding: chunked\n1 < Connection: keep-alive\n1 < X-Powered-By: Express\n1 < Access-Control-Allow-Origin: *\n1 < Etag: W\/\"406-ut0vzoCuidvyMf8arZpMpJ6ZRDw\"\n1 < Via: 1.1 vegur\n1 < Cache-Control: max-age=14400\n1 < CF-Cache-Status: HIT\n1 < Age: 549\n1 < Report-To: {\"endpoints\":[{\"url\":\"https:\\\/\\\/a.nel.cloudflare.com\\\/report\\\/v3?s=pyfprIGCib0Aujr5MwVJZaK%2BUKNkasHkAE1iQrUmOKO6tP5yanIyh9oGF%2BGcc12fjJL9WnPTmkTVRReDRPxo2f91%2BWHCrjx7eI5QYPryi0vw65Jg%2Baj4wFTBwA%3D%3D\"}],\"group\":\"cf-nel\",\"max_age\":604800}\n1 < NEL: {\"success_fraction\":0,\"report_to\":\"cf-nel\",\"max_age\":604800}\n1 < Vary: Accept-Encoding\n1 < Server: cloudflare\n1 < CF-RAY: 7479849cad171d1e-CPH\n{\"page\":2,\"per_page\":6,\"total\":12,\"total_pages\":2,\"data\":[{\"id\":7,\"email\":\"michael.lawson@reqres.in\",\"first_name\":\"Michael\",\"last_name\":\"Lawson\",\"avatar\":\"https:\/\/reqres.in\/img\/faces\/7-image.jpg\"},{\"id\":8,\"email\":\"lindsay.ferguson@reqres.in\",\"first_name\":\"Lindsay\",\"last_name\":\"Ferguson\",\"avatar\":\"https:\/\/reqres.in\/img\/faces\/8-image.jpg\"},{\"id\":9,\"email\":\"tobias.funke@reqres.in\",\"first_name\":\"Tobias\",\"last_name\":\"Funke\",\"avatar\":\"https:\/\/reqres.in\/img\/faces\/9-image.jpg\"},{\"id\":10,\"email\":\"byron.fields@reqres.in\",\"first_name\":\"Byron\",\"last_name\":\"Fields\",\"avatar\":\"https:\/\/reqres.in\/img\/faces\/10-image.jpg\"},{\"id\":11,\"email\":\"george.edwards@reqres.in\",\"first_name\":\"George\",\"last_name\":\"Edwards\",\"avatar\":\"https:\/\/reqres.in\/img\/faces\/11-image.jpg\"},{\"id\":12,\"email\":\"rachel.howell@reqres.in\",\"first_name\":\"Rachel\",\"last_name\":\"Howell\",\"avatar\":\"https:\/\/reqres.in\/img\/faces\/12-image.jpg\"}],\"support\":{\"url\":\"https:\/\/reqres.in\/#support-heading\",\"text\":\"To keep ReqRes free, contributions towards server costs are appreciated!\"}}\n\n"},{"result":{"nanos":10267,"millis":0.010267,"status":"passed"},"step":{"line":100,"prefix":"Then","index":2,"text":"status 200"}},{"result":{"nanos":683670,"millis":0.68367,"status":"passed"},"step":{"line":101,"prefix":"*","index":3,"text":"match responseType == 'json'"}},{"result":{"nanos":662453,"millis":0.662453,"status":"passed"},"step":{"line":102,"prefix":"*","index":4,"text":"def firstRequestResponse = get[0] response.data[*].[?(@.id==11)]"}},{"result":{"nanos":1286716,"millis":1.286716,"status":"passed"},"step":{"line":103,"prefix":"*","index":5,"text":"print 'First req response: ', firstRequestResponse"},"stepLog":"19:48:57.528 [print] First req response:  {\n  \"id\": 11,\n  \"email\": \"george.edwards@reqres.in\",\n  \"first_name\": \"George\",\n  \"last_name\": \"Edwards\",\n  \"avatar\": \"https:\/\/reqres.in\/img\/faces\/11-image.jpg\"\n}\n \n"},{"result":{"nanos":166980,"millis":0.16698,"status":"passed"},"step":{"line":104,"prefix":"Given","index":6,"text":"url 'https:\/\/reqres.in\/api\/users?id=11'"}},{"result":{"nanos":210820136,"millis":210.820136,"status":"passed"},"step":{"line":105,"prefix":"When","index":7,"text":"method GET"},"stepLog":"19:48:57.530 request:\n2 > GET https:\/\/reqres.in\/api\/users?id=11\n2 > Host: reqres.in\n2 > Connection: Keep-Alive\n2 > User-Agent: Apache-HttpClient\/4.5.13 (Java\/13.0.2)\n2 > Accept-Encoding: gzip,deflate\n\n\n19:48:57.739 response time in milliseconds: 208\n2 < 200\n2 < Date: Thu, 08 Sep 2022 17:48:57 GMT\n2 < Content-Type: application\/json; charset=utf-8\n2 < Transfer-Encoding: chunked\n2 < Connection: keep-alive\n2 < X-Powered-By: Express\n2 < Access-Control-Allow-Origin: *\n2 < Etag: W\/\"11e-\/ce0hUxrHiq225jAM88pfKCXCL4\"\n2 < Via: 1.1 vegur\n2 < Cache-Control: max-age=14400\n2 < CF-Cache-Status: HIT\n2 < Age: 3002\n2 < Report-To: {\"endpoints\":[{\"url\":\"https:\\\/\\\/a.nel.cloudflare.com\\\/report\\\/v3?s=BIvQMtjj5ruxMozR4OC6hbHs0zcBmO8VoQHiAafdFtwldCfzaUin39HwoJxYVbU215MD2oRVIEcB%2FJ%2FtfUX%2BhZ48LaC7%2FOOR0IJa1nDxGq%2FfzQM9ITSJyugm%2Bw%3D%3D\"}],\"group\":\"cf-nel\",\"max_age\":604800}\n2 < NEL: {\"success_fraction\":0,\"report_to\":\"cf-nel\",\"max_age\":604800}\n2 < Vary: Accept-Encoding\n2 < Server: cloudflare\n2 < CF-RAY: 7479849de9dbbe5b-CPH\n{\"data\":{\"id\":11,\"email\":\"george.edwards@reqres.in\",\"first_name\":\"George\",\"last_name\":\"Edwards\",\"avatar\":\"https:\/\/reqres.in\/img\/faces\/11-image.jpg\"},\"support\":{\"url\":\"https:\/\/reqres.in\/#support-heading\",\"text\":\"To keep ReqRes free, contributions towards server costs are appreciated!\"}}\n\n"},{"result":{"nanos":9339,"millis":0.009339,"status":"passed"},"step":{"line":106,"prefix":"Then","index":8,"text":"status 200"}},{"result":{"nanos":535197,"millis":0.535197,"status":"passed"},"step":{"line":107,"prefix":"*","index":9,"text":"def secondRequestResponse = response"}},{"result":{"nanos":2057840,"millis":2.05784,"status":"passed"},"step":{"line":108,"prefix":"*","index":10,"text":"print 'Second req response: ', secondRequestResponse"},"stepLog":"19:48:57.742 [print] Second req response:  {\n  \"data\": {\n    \"id\": 11,\n    \"email\": \"george.edwards@reqres.in\",\n    \"first_name\": \"George\",\n    \"last_name\": \"Edwards\",\n    \"avatar\": \"https:\/\/reqres.in\/img\/faces\/11-image.jpg\"\n  },\n  \"support\": {\n    \"url\": \"https:\/\/reqres.in\/#support-heading\",\n    \"text\": \"To keep ReqRes free, contributions towards server costs are appreciated!\"\n  }\n}\n \n"},{"result":{"nanos":4992281,"errorMessage":"did not evaluate to 'true': firstRequestResponse == secondRequestResponse\nclasspath:examples\/users\/users.feature:109","millis":4.992281,"status":"failed"},"step":{"line":109,"prefix":"*","index":11,"text":"assert firstRequestResponse == secondRequestResponse"},"stepLog":"19:48:57.748 classpath:examples\/users\/users.feature:109\n* assert firstRequestResponse == secondRequestResponse\ndid not evaluate to 'true': firstRequestResponse == secondRequestResponse\nclasspath:examples\/users\/users.feature:109\n"}],"line":96,"description":"","durationMillis":536.945924,"failed":true,"error":"did not evaluate to 'true': firstRequestResponse == secondRequestResponse\nclasspath:examples\/users\/users.feature:109","executorName":"main","name":"Bonus question...","startTime":1662659337208,"refId":"[5:96]","endTime":1662659337748,"exampleIndex":-1}],"callDepth":0,"name":"sample karate test script","description":"for help, see: https:\/\/github.com\/intuit\/karate\/wiki\/IDE-Support","resultDate":"2022-09-08 07:48:57 pm","durationMillis":2854.690314,"passedCount":4}